Air BnB Data Analysis
…
As seen in the dot plots, the overall pattern for each neighborhood appears to be that shared rooms are the lowest in price, private rooms are more expensive than shared rooms, but less expensive that entire homes (which are the most expensive).

Furthermore, in all neighborhoods, it seems to be the pattern that if there is a high percentage of blacks in the neighborhood, the price of the unit will be lower than if there were a lower percentage of blacks.

There could be a possible neighborhood by HighRev interaction. Some neighborhoods such as West Lawn and Pullman have higher prices for units with a high number of reviews. Other neighborhoods, however, such as Logan Square and Jefferson Park have higher prices for units with less reviews.

AirBnb.data %>%
  group_by(neighborhood) %>%
  summarise(mean(price),
            mean(WalkScore),
            mean(accommodates),
            count(HighBlack),
            count(HighRev))

## # A tibble: 43 x 6
##    neighborhood `mean(price)` `mean(WalkScore~ `mean(accommoda~
##    <chr>                <dbl>            <dbl>            <dbl>
##  1 Albany Park           86.3               87             3.37
##  2 Archer Heig~          57                 74             2.6 
##  3 Avondale             113.                84             4.15
##  4 Beverly               75                 64             3   
##  5 Bridgeport            79.9               81             3.64
##  6 Brighton Pa~         105.                72             6   
##  7 Burnside              32.5               63             3   
##  8 Calumet Hei~          16                 63             1   
##  9 East Garfie~          83.9               78             4.32
## 10 Edgewater             97.0               89             3.2 
## # ... with 33 more rows, and 2 more variables: `count(HighBlack)` <int>,
## #   `count(HighRev)` <int>
…
